Homework 3
…
Rows: 214 Columns: 11
── Column specification ────────────────────────────────────────────────────────
Delimiter: ","
dbl (11): X1, X2, X3, X4, X5, X6, X7, X8, X9, X10, X11

ℹ Use `spec()` to retrieve the full column specification for this data.
ℹ Specify the column types or set `show_col_types = FALSE` to quiet this message.

# Define the column names
colnames(glass_data) <- c("Id", "RI", "Na", "Mg", "Al", "Si", "K", "Ca", "Ba", "Fe", "Type_of_glass")

# Print the tibble
glass_data

# A tibble: 214 × 11
      Id    RI    Na    Mg    Al    Si     K    Ca    Ba    Fe Type_of_glass
   <dbl> <dbl> <dbl> <dbl> <dbl> <dbl> <dbl> <dbl> <dbl> <dbl>         <dbl>
 1     1  1.52  13.6  4.49  1.1   71.8  0.06  8.75     0  0                1
 2     2  1.52  13.9  3.6   1.36  72.7  0.48  7.83     0  0                1
 3     3  1.52  13.5  3.55  1.54  73.0  0.39  7.78     0  0                1
 4     4  1.52  13.2  3.69  1.29  72.6  0.57  8.22     0  0                1
 5     5  1.52  13.3  3.62  1.24  73.1  0.55  8.07     0  0                1
 6     6  1.52  12.8  3.61  1.62  73.0  0.64  8.07     0  0.26             1
 7     7  1.52  13.3  3.6   1.14  73.1  0.58  8.17     0  0                1
 8     8  1.52  13.2  3.61  1.05  73.2  0.57  8.24     0  0                1
 9     9  1.52  14.0  3.58  1.37  72.1  0.56  8.3      0  0                1
10    10  1.52  13    3.6   1.36  73.0  0.57  8.4      0  0.11             1
# ℹ 204 more rows
…
# Filter the data
glass_filtered <- glass_data %>%
  filter(Fe < 0.2, Type_of_glass %in% c("tableware", "headlamps"))

# Print the filtered data
glass_filtered

# A tibble: 38 × 11
      Id    RI    Na    Mg    Al    Si     K    Ca    Ba    Fe Type_of_glass
   <dbl> <dbl> <dbl> <dbl> <dbl> <dbl> <dbl> <dbl> <dbl> <dbl> <chr>        
 1   177  1.52  14    2.39  1.56  72.4  0     9.57  0        0 tableware    
 2   178  1.52  13.8  2.41  1.19  72.8  0     9.77  0        0 tableware    
 3   179  1.52  14.5  2.24  1.62  72.4  0     9.26  0        0 tableware    
 4   180  1.52  14.1  2.19  1.66  72.7  0     9.32  0        0 tableware    
 5   181  1.51  14.4  1.74  1.54  74.6  0     7.59  0        0 tableware    
 6   182  1.52  15.0  0.78  1.74  72.5  0     9.95  0        0 tableware    
 7   183  1.52  14.2  0     2.09  72.7  0    10.9   0        0 tableware    
 8   184  1.52  14.6  0     0.56  73.5  0    11.2   0        0 tableware    
 9   185  1.51  17.4  0     0.34  75.4  0     6.65  0        0 tableware    
10   186  1.51  13.7  3.2   1.81  72.8  1.76  5.43  1.19     0 headlamps    
# ℹ 28 more rows
…
ℹ Use `spec()` to retrieve the full column specification for this data.
ℹ Specify the column types or set `show_col_types = FALSE` to quiet this message.

# Define the correct column names
column_names <- c("seq_name", "mcg", "gvh", "alm", "mit", "erl", "pox", "vac", "nuc", "class")

# Assign the column names to the yeast_data tibble
colnames(yeast_data) <- column_names

# Print the tibble to verify the data
print(yeast_data)

# A tibble: 1,484 × 10
   seq_name     mcg   gvh   alm   mit   erl   pox   vac   nuc class
   <chr>      <dbl> <dbl> <dbl> <dbl> <dbl> <dbl> <dbl> <dbl> <chr>
 1 ADT1_YEAST  0.58  0.61  0.47  0.13   0.5   0    0.48  0.22 MIT  
 2 ADT2_YEAST  0.43  0.67  0.48  0.27   0.5   0    0.53  0.22 MIT  
 3 ADT3_YEAST  0.64  0.62  0.49  0.15   0.5   0    0.53  0.22 MIT  
 4 AAR2_YEAST  0.58  0.44  0.57  0.13   0.5   0    0.54  0.22 NUC  
 5 AATM_YEAST  0.42  0.44  0.48  0.54   0.5   0    0.48  0.22 MIT  
 6 AATC_YEAST  0.51  0.4   0.56  0.17   0.5   0.5  0.49  0.22 CYT  
 7 ABC1_YEAST  0.5   0.54  0.48  0.65   0.5   0    0.53  0.22 MIT  
 8 BAF1_YEAST  0.48  0.45  0.59  0.2    0.5   0    0.58  0.34 NUC  
 9 ABF2_YEAST  0.55  0.5   0.66  0.36   0.5   0    0.49  0.22 MIT  
10 ABP1_YEAST  0.4   0.39  0.6   0.15   0.5   0    0.58  0.3  CYT  
# ℹ 1,474 more rows
# Remove the seq_name and nuc columns
yeast_data <- yeast_data %>%
  select(-seq_name, -nuc)

# Add columns for the mean and median of each numeric variable at each class grouping
yeast_summary <- yeast_data %>%
  group_by(class) %>%
  summarize(across(c(mcg, gvh, alm, mit, erl, pox, vac), 
                   list(mean = mean, median = median), 
                   .names = "{.fn}_{.col}"))

# Print the summarized data
print(yeast_summary)

# A tibble: 44 × 15
   class    mean_mcg median_mcg mean_gvh median_gvh mean_alm median_alm mean_mit
   <chr>       <dbl>      <dbl>    <dbl>      <dbl>    <dbl>      <dbl>    <dbl>
 1 0.22  C…       NA         NA    0.496      0.505    0.500      0.47     0.536
 2 0.22  E…       NA         NA    0.7        0.7      0.84       0.84     0.49 
 3 0.22  M…       NA         NA    0.79       0.79     0.57       0.57     0.41 
 4 0.22  M…       NA         NA    0.41       0.41     0.53       0.53     0.465
 5 0.22  M…       NA         NA    0.536      0.52     0.572      0.56     0.472
 6 0.22  N…       NA         NA    0.42       0.42     0.31       0.31     0.5  
 7 0.22  P…       NA         NA    0.46       0.46     0.37       0.37     0.48 
 8 0.25  M…       NA         NA    0.47       0.47     0.41       0.41     0.53 
 9 0.25  N…       NA         NA    0.4        0.4      0.335      0.335    0.595
10 0.26  C…       NA         NA    0.5        0.5      0.46       0.46     0.52 
# ℹ 34 more rows
# ℹ 7 more variables: median_mit <dbl>, mean_erl <dbl>, median_erl <dbl>,
#   mean_pox <dbl>, median_pox <dbl>, mean_vac <dbl>, median_vac <dbl>

Wine Data

library(readxl)

# Read the white wine data from the first sheet
white_wine <- read_excel("C:/Users/karen/Downloads/hw3 data/white-wine.xlsx", sheet = 1)

# Print the tibble to verify the data
white_wine

# A tibble: 4,898 × 12
   `fixed acidity` `volatile acidity` `citric acid` `residual sugar` chlorides
             <dbl>              <dbl>         <dbl>            <dbl>     <dbl>
 1               7               0.27          0.36             20.7     0.045
 2              63               0.3           0.34              1.6     0.049
 3              81               0.28          0.4               6.9     0.05 
 4              72               0.23          0.32              8.5     0.058
 5              72               0.23          0.32              8.5     0.058
 6              81               0.28          0.4               6.9     0.05 
 7              62               0.32          0.16              7       0.045
 8               7               0.27          0.36             20.7     0.045
 9              63               0.3           0.34              1.6     0.049
10              81               0.22          0.43              1.5     0.044
# ℹ 4,888 more rows
# ℹ 7 more variables: `free sulfur dioxide` <dbl>,
#   `total sulfur dioxide` <dbl>, density <dbl>, pH <dbl>, sulphates <dbl>,
#   alcohol <dbl>, quality <dbl>

# Read the variable names from the second sheet
column_names <- read_excel("C:/Users/karen/Downloads/hw3 data/white-wine.xlsx", sheet = 2)

# Overwrite the current column names
colnames(white_wine) <- column_names[[1]]

# Add a column indicating the wine type
white_wine <- white_wine %>%
  mutate(type = "white")

# Print the updated tibble
white_wine

# A tibble: 4,898 × 13
   fixed_acidity volatile_acidity citric_acid residual_sugar chlorides
           <dbl>            <dbl>       <dbl>          <dbl>     <dbl>
 1             7             0.27        0.36           20.7     0.045
 2            63             0.3         0.34            1.6     0.049
 3            81             0.28        0.4             6.9     0.05 
 4            72             0.23        0.32            8.5     0.058
 5            72             0.23        0.32            8.5     0.058
 6            81             0.28        0.4             6.9     0.05 
 7            62             0.32        0.16            7       0.045
 8             7             0.27        0.36           20.7     0.045
 9            63             0.3         0.34            1.6     0.049
10            81             0.22        0.43            1.5     0.044
# ℹ 4,888 more rows
# ℹ 8 more variables: free_sulfur_dioxide <dbl>, total_sulfur_dioxide <dbl>,
#   density <dbl>, pH <dbl>, sulphates <dbl>, alcohol <dbl>, quality <dbl>,
#   type <chr>
…
# Read the red wine data from the URL with a semi-colon delimiter
red_wine_data <- read_delim(red_wine_url, delim = ";", col_names = TRUE)

Rows: 1599 Columns: 12
── Column specification ────────────────────────────────────────────────────────
Delimiter: ";"
dbl (12): fixed acidity, volatile acidity, citric acid, residual sugar, chlo...

ℹ Use `spec()` to retrieve the full column specification for this data.
ℹ Specify the column types or set `show_col_types = FALSE` to quiet this message.

# Print the tibble to verify the data
print(red_wine_data)

# A tibble: 1,599 × 12
   `fixed acidity` `volatile acidity` `citric acid` `residual sugar` chlorides
             <dbl>              <dbl>         <dbl>            <dbl>     <dbl>
 1             7.4               0.7           0                 1.9     0.076
 2             7.8               0.88          0                 2.6     0.098
 3             7.8               0.76          0.04              2.3     0.092
 4            11.2               0.28          0.56              1.9     0.075
 5             7.4               0.7           0                 1.9     0.076
 6             7.4               0.66          0                 1.8     0.075
 7             7.9               0.6           0.06              1.6     0.069
 8             7.3               0.65          0                 1.2     0.065
 9             7.8               0.58          0.02              2       0.073
10             7.5               0.5           0.36              6.1     0.071
# ℹ 1,589 more rows
# ℹ 7 more variables: `free sulfur dioxide` <dbl>,
#   `total sulfur dioxide` <dbl>, density <dbl>, pH <dbl>, sulphates <dbl>,
#   alcohol <dbl>, quality <dbl>

# Read the new column names from the second sheet of the white wine Excel file
new_column_names <- read_excel("C:/Users/karen/Downloads/hw3 data/white-wine.xlsx", sheet = 2) %>%
  pull()

# Assign the new column names to the red wine data
colnames(red_wine_data) <- new_column_names

# Print the tibble to verify the new column names
print(red_wine_data)

# A tibble: 1,599 × 12
   fixed_acidity volatile_acidity citric_acid residual_sugar chlorides
           <dbl>            <dbl>       <dbl>          <dbl>     <dbl>
 1           7.4             0.7         0               1.9     0.076
 2           7.8             0.88        0               2.6     0.098
 3           7.8             0.76        0.04            2.3     0.092
 4          11.2             0.28        0.56            1.9     0.075
 5           7.4             0.7         0               1.9     0.076
 6           7.4             0.66        0               1.8     0.075
 7           7.9             0.6         0.06            1.6     0.069
 8           7.3             0.65        0               1.2     0.065
 9           7.8             0.58        0.02            2       0.073
10           7.5             0.5         0.36            6.1     0.071
# ℹ 1,589 more rows
# ℹ 7 more variables: free_sulfur_dioxide <dbl>, total_sulfur_dioxide <dbl>,
#   density <dbl>, pH <dbl>, sulphates <dbl>, alcohol <dbl>, quality <dbl>

# Add a column denoting the type as "red"
red_wine_data <- red_wine_data %>%
  mutate(type = "red")

# Print the tibble to verify the addition of the new column
print(red_wine_data)

# A tibble: 1,599 × 13
   fixed_acidity volatile_acidity citric_acid residual_sugar chlorides
           <dbl>            <dbl>       <dbl>          <dbl>     <dbl>
 1           7.4             0.7         0               1.9     0.076
 2           7.8             0.88        0               2.6     0.098
 3           7.8             0.76        0.04            2.3     0.092
 4          11.2             0.28        0.56            1.9     0.075
 5           7.4             0.7         0               1.9     0.076
 6           7.4             0.66        0               1.8     0.075
 7           7.9             0.6         0.06            1.6     0.069
 8           7.3             0.65        0               1.2     0.065
 9           7.8             0.58        0.02            2       0.073
10           7.5             0.5         0.36            6.1     0.071
# ℹ 1,589 more rows
# ℹ 8 more variables: free_sulfur_dioxide <dbl>, total_sulfur_dioxide <dbl>,
#   density <dbl>, pH <dbl>, sulphates <dbl>, alcohol <dbl>, quality <dbl>,
#   type <chr>

# Combine the two data sets
wine_data <- bind_rows(white_wine, red_wine_data)

# Print the combined data
wine_data

# A tibble: 6,497 × 13
   fixed_acidity volatile_acidity citric_acid residual_sugar chlorides
           <dbl>            <dbl>       <dbl>          <dbl>     <dbl>
 1             7             0.27        0.36           20.7     0.045
 2            63             0.3         0.34            1.6     0.049
 3            81             0.28        0.4             6.9     0.05 
 4            72             0.23        0.32            8.5     0.058
 5            72             0.23        0.32            8.5     0.058
 6            81             0.28        0.4             6.9     0.05 
 7            62             0.32        0.16            7       0.045
 8             7             0.27        0.36           20.7     0.045
 9            63             0.3         0.34            1.6     0.049
10            81             0.22        0.43            1.5     0.044
# ℹ 6,487 more rows
# ℹ 8 more variables: free_sulfur_dioxide <dbl>, total_sulfur_dioxide <dbl>,
#   density <dbl>, pH <dbl>, sulphates <dbl>, alcohol <dbl>, quality <dbl>,
#   type <chr>
…
# Retrieve data from the Teams table for the year 2015 using dplyr
teams_2015 <- tbl(con, "Teams") %>%
  filter(yearID == 2015) %>%
  collect()

# Print the retrieved data
print(teams_2015)

# A tibble: 30 × 48
   yearID lgID  teamID franchID divID  Rank     G Ghome     W     L DivWin WCWin
    <int> <chr> <chr>  <chr>    <chr> <int> <int> <int> <int> <int> <chr>  <chr>
 1   2015 NL    ARI    ARI      W         3   162    81    79    83 N      N    
 2   2015 NL    ATL    ATL      E         4   162    81    67    95 N      N    
 3   2015 AL    BAL    BAL      E         3   162    78    81    81 N      N    
 4   2015 AL    BOS    BOS      E         5   162    81    78    84 N      N    
 5   2015 AL    CHA    CHW      C         4   162    81    76    86 N      N    
 6   2015 NL    CHN    CHC      C         3   162    81    97    65 N      Y    
 7   2015 NL    CIN    CIN      C         5   162    81    64    98 N      N    
 8   2015 AL    CLE    CLE      C         3   161    80    81    80 N      N    
 9   2015 NL    COL    COL      W         5   162    81    68    94 N      N    
10   2015 AL    DET    DET      C         5   161    81    74    87 N      N    
# ℹ 20 more rows
# ℹ 36 more variables: LgWin <chr>, WSWin <chr>, R <int>, AB <int>, H <int>,
#   X2B <int>, X3B <int>, HR <int>, BB <int>, SO <int>, SB <int>, CS <int>,
#   HBP <int>, SF <int>, RA <int>, ER <int>, ERA <dbl>, CG <int>, SHO <int>,
#   SV <int>, IPouts <int>, HA <int>, HRA <int>, BBA <int>, SOA <int>, E <int>,
#   DP <int>, FP <dbl>, name <chr>, park <chr>, attendance <int>, BPF <int>,
#   PPF <int>, teamIDBR <chr>, teamIDlahman45 <chr>, teamIDretro <chr>

# Retrieve data from the Teams table for the year 2015 using SQL
teams_2015_sql <- tbl(con, sql("SELECT * FROM Teams WHERE yearID = 2015")) %>%
  collect()

# Print the retrieved data
print(teams_2015_sql)

# A tibble: 30 × 48
   yearID lgID  teamID franchID divID  Rank     G Ghome     W     L DivWin WCWin
    <int> <chr> <chr>  <chr>    <chr> <int> <int> <int> <int> <int> <chr>  <chr>
 1   2015 NL    ARI    ARI      W         3   162    81    79    83 N      N    
 2   2015 NL    ATL    ATL      E         4   162    81    67    95 N      N    
 3   2015 AL    BAL    BAL      E         3   162    78    81    81 N      N    
 4   2015 AL    BOS    BOS      E         5   162    81    78    84 N      N    
 5   2015 AL    CHA    CHW      C         4   162    81    76    86 N      N    
 6   2015 NL    CHN    CHC      C         3   162    81    97    65 N      Y    
 7   2015 NL    CIN    CIN      C         5   162    81    64    98 N      N    
 8   2015 AL    CLE    CLE      C         3   161    80    81    80 N      N    
 9   2015 NL    COL    COL      W         5   162    81    68    94 N      N    
10   2015 AL    DET    DET      C         5   161    81    74    87 N      N    
# ℹ 20 more rows
# ℹ 36 more variables: LgWin <chr>, WSWin <chr>, R <int>, AB <int>, H <int>,
#   X2B <int>, X3B <int>, HR <int>, BB <int>, SO <int>, SB <int>, CS <int>,
#   HBP <int>, SF <int>, RA <int>, ER <int>, ERA <dbl>, CG <int>, SHO <int>,
#   SV <int>, IPouts <int>, HA <int>, HRA <int>, BBA <int>, SOA <int>, E <int>,
#   DP <int>, FP <dbl>, name <chr>, park <chr>, attendance <int>, BPF <int>,
#   PPF <int>, teamIDBR <chr>, teamIDlahman45 <chr>, teamIDretro <chr>

# Retrieve all players in the Hall of Fame, the year they were voted in, and their category
hall_of_fame <- tbl(con, "HallOfFame") %>%
  filter(inducted == "Y") %>%
  select(playerID, yearID, category) %>%
  collect()

# Print the retrieved data
print(hall_of_fame)

# A tibble: 340 × 3
   playerID  yearID category         
   <chr>      <int> <chr>            
 1 cobbty01    1936 Player           
 2 ruthba01    1936 Player           
 3 wagneho01   1936 Player           
 4 mathech01   1936 Player           
 5 johnswa01   1936 Player           
 6 lajoina01   1937 Player           
 7 speaktr01   1937 Player           
 8 youngcy01   1937 Player           
 9 bulkemo99   1937 Pioneer/Executive
10 johnsba99   1937 Pioneer/Executive
# ℹ 330 more rows

# Retrieve People table as a local data frame
people <- tbl(con, "People") %>%
  select(playerID, nameFirst, nameLast) %>%
  collect()

# Combine Hall of Fame data with People table to add first and last names
hall_of_fame_with_names <- hall_of_fame %>%
  inner_join(people, by = "playerID")

# Print the combined data
print(hall_of_fame_with_names)

# A tibble: 338 × 5
   playerID  yearID category          nameFirst nameLast 
   <chr>      <int> <chr>             <chr>     <chr>    
 1 cobbty01    1936 Player            Ty        Cobb     
 2 ruthba01    1936 Player            Babe      Ruth     
 3 wagneho01   1936 Player            Honus     Wagner   
 4 mathech01   1936 Player            Christy   Mathewson
 5 johnswa01   1936 Player            Walter    Johnson  
 6 lajoina01   1937 Player            Nap       Lajoie   
 7 speaktr01   1937 Player            Tris      Speaker  
 8 youngcy01   1937 Player            Cy        Young    
 9 bulkemo99   1937 Pioneer/Executive Morgan    Bulkeley 
10 johnsba99   1937 Pioneer/Executive Ban       Johnson  
# ℹ 328 more rows
…
# Print the summarized data
print(managers_summary)

# A tibble: 749 × 5
   playerID  G_managed Total_W Total_L win_loss_percentage
   <chr>         <int>   <int>   <int>               <int>
 1 bensove01         1       1       0                   1
 2 burwebi01         1       1       0                   1
 3 cohenan01         1       1       0                   1
 4 ebeldi99          3       3       0                   1
 5 falkbi01          1       1       0                   1
 6 hardeme01         3       3       0                   1
 7 simmote01         1       1       0                   1
 8 steinte01         2       2       0                   1
 9 sukefcl01         2       2       0                   1
10 tamarjo01         1       1       0                   1
# ℹ 739 more rows
…
